id,leallas_okai_ID,project_id
1,159,38
2,7,39
3,39,40
4,125,41
5,35,42
6,45,43
7,27,44
8,113,45
9,29,46
10,105,47
11,23,48
12,59,49
13,57,50
14,157,51
15,21,52
16,33,53
17,109,54
18,49,55
19,75,56
20,31,57
21,73,58
22,13,59
23,77,60
24,69,61
25,111,62
26,121,63
27,37,64
28,3,65
29,83,66
30,159,67
31,7,68
32,39,69
33,125,70
34,35,71
35,45,72
36,27,73
37,113,74
38,29,75
39,105,76
40,23,77
41,59,78
42,57,79
43,157,80
44,21,81
45,33,82
46,109,83
47,49,84
48,75,85
49,31,86
50,73,87
51,13,88
52,77,89
53,69,90
54,111,91
55,121,92
56,37,93
57,3,94
58,83,95
59,159,96
60,7,97
61,39,98
62,125,99
63,35,100
64,45,101
65,27,102
66,113,103
67,29,104
68,105,105
69,23,106
70,59,107
71,57,108
72,157,109
73,21,110
74,33,111
75,109,112
76,49,113
77,75,114
78,31,115
79,73,116
80,13,117
81,77,118
82,69,119
83,111,120
84,121,121
85,37,122
86,3,123
87,83,124
88,159,125
89,7,126
90,39,127
91,125,128
92,35,129
93,45,130
94,27,131
95,113,133
96,29,135
97,105,137
98,23,139
99,59,141
100,57,143
101,157,145
102,21,147
103,33,149
104,109,151
105,49,153
106,75,177
107,31,179
108,73,187
109,13,189
110,77,191
111,69,193
112,111,195
113,121,197
114,37,199
115,3,201
116,83,203
117,159,205
118,7,207
119,39,209
120,125,211
121,35,213
122,45,215
123,27,217
124,113,219
125,29,38
126,105,39
127,23,40
128,59,41
129,57,42
130,157,43
131,21,44
132,33,45
133,109,46
134,49,47
135,75,48
136,31,49
137,73,50
138,13,51
139,77,52
140,69,53
141,111,54
142,121,55
143,37,56
144,3,57
145,83,58
146,159,59
147,7,60
148,39,61
149,125,62
150,35,63
151,45,64
152,27,65
153,113,66
154,29,67
155,105,68
156,23,69
157,59,70
158,57,71
159,157,72
160,21,73
161,33,74
162,109,75
163,49,76
164,75,77
165,31,78
166,73,79
167,13,80
168,77,81
169,69,82
170,111,83
171,121,84
172,37,85
173,3,86
174,83,87
175,159,88
176,7,89
177,39,90
178,125,91
179,35,92
180,45,93
181,27,94
182,113,95
183,29,96
184,105,97
185,23,98
186,59,99
187,57,100
188,157,101
189,21,102
190,33,103
191,109,104
192,49,105
193,75,106
194,31,107
195,73,108
196,13,109
197,77,110
198,69,111
199,111,112
200,121,113
201,37,114
202,3,115
203,83,116
204,159,117
205,7,118
206,39,119
207,125,120
208,35,121
209,45,122
210,27,123
211,113,124
212,29,125
213,105,126
214,23,127
215,59,128
216,57,129
217,157,130
218,21,131
219,33,133
220,109,135
221,49,137
222,75,139
223,31,141
224,73,143
225,13,145
226,77,147
227,69,149
228,111,151
229,121,153
230,37,177
231,3,179
232,83,187
233,159,189
234,7,191
235,39,193
236,125,195
237,35,197
238,45,199
239,27,201
240,113,203
241,29,205
242,105,207
243,23,209
244,59,211
245,57,213
246,157,215
247,21,217
248,33,219
249,109,38
250,49,39
251,75,40
252,31,41
253,73,42
254,13,43
255,77,44
256,69,45
257,111,46
258,121,47
259,37,48
260,3,49
261,83,50
262,159,51
263,7,52
264,39,53
265,125,54
266,35,55
267,45,56
268,27,57
269,113,58
270,29,59
271,105,60
272,23,61
273,59,62
274,57,63
275,157,64
276,21,65
277,33,66
278,109,67
279,49,68
280,75,69
281,31,70
282,73,71
283,13,72
284,77,73
285,69,74
286,111,75
287,121,76
288,37,77
289,3,78
290,83,79
291,159,80
292,7,81
293,39,82
294,125,83
295,35,84
296,45,85
297,27,86
298,113,87
299,29,88
300,105,89
301,23,90
302,59,91
303,57,92
304,157,93
305,21,94
306,33,95
307,109,96
308,49,97
309,75,98
310,31,99
311,73,100
312,13,101
313,77,102
314,69,103
315,111,104
316,121,105
317,37,106
318,3,107
319,83,108
320,159,109
321,7,110
322,39,111
323,125,112
324,35,113
325,45,114
326,27,115
327,113,116
328,29,117
329,105,118
330,23,119
331,59,120
332,57,121
333,157,122
334,21,123
335,33,124
336,109,125
337,49,126
338,75,127
339,31,128
340,73,129
341,13,130
342,77,131
343,69,133
344,111,135
345,121,137
346,37,139
347,3,141
348,83,143
349,159,145
350,7,147
351,39,149
352,125,151
353,35,153
354,45,177
355,27,179
356,113,187
357,29,189
358,105,191
359,23,193
360,59,195
361,57,197
362,157,199
363,21,201
364,33,203
365,109,205
366,49,207
367,75,209
368,31,211
369,73,213
370,13,215
371,77,217
372,69,219
